{
    "pagination": {
        "current": 1, 
        "total_items": 1, 
        "total_pages": 1
    }, 
    "urls": [
        {
            "url": "/manager/projects/5603a5db8acb504eb839a28f/reports/56a888c98acb50474d19b0d4/view/", 
            "id": "56a888c98acb50474d19b0d4"
        }
    ]
}