{
    "pagination": {
        "current": 1, 
        "total_items": 1, 
        "total_pages": 1
    }, 
    "urls": [
        {
            "url": "/manager/projects/559245688acb505fa8302e78/reports/56978a3c8acb50574fc78b77/view/", 
            "id": "56978a3c8acb50574fc78b77"
        }
    ]
}