{
    "pagination": {
        "current": 1, 
        "total_items": 1, 
        "total_pages": 1
    }, 
    "urls": [
        {
            "url": "/manager/projects/567beada8acb504d145caef5/reports/56a453668acb505966be2e26/view/", 
            "id": "56a453668acb505966be2e26"
        }
    ]
}