{
    "pagination": {
        "current": 1, 
        "total_items": 1, 
        "total_pages": 1
    }, 
    "urls": [
        {
            "url": "/manager/projects/5594eb708acb50072d2adc3e/reports/56b0657e8acb500d4b62a709/view/", 
            "id": "56b0657e8acb500d4b62a709"
        }
    ]
}