{
    "pagination": {
        "current": 1, 
        "total_items": 1, 
        "total_pages": 1
    }, 
    "urls": [
        {
            "url": "/manager/projects/55b09a788acb5077cbeb4d83/reports/56ab1bc88acb50446c83356b/view/", 
            "id": "56ab1bc88acb50446c83356b"
        }
    ]
}