{
    "pagination": {
        "current": 1, 
        "total_items": 1, 
        "total_pages": 1
    }, 
    "reports": [
        {
            "report_code": "pesc_corporate_xml_80020_v1", 
            "project_id": "55b09a788acb5077cbeb4d83", 
            "id": "56ab1bc88acb50446c83356b", 
            "settings": {
                "date": "2015-12-01T00:00:00+03:00", 
                "interval_description": "30 \u043c\u0438\u043d\u0443\u0442", 
                "interval": 1, 
                "title": "\u041d\u043e\u0432\u044b\u0439 \u043e\u0442\u0447\u0435\u0442 \u043e\u0442 29.01.2016 10:58:23"
            }
        }
    ]
}